---
http_interactions:
- request:
    method: get
    uri: https://bitcoin-central.net/api/v1/trade_orders
    body:
      encoding: US-ASCII
      string: ''
    headers:
      Accept:
      - ! '*/*'
      User-Agent:
      - Ruby
  response:
    status:
      code: 200
      message: OK
    headers:
      Content-Type:
      - application/json; charset=utf-8
      Transfer-Encoding:
      - chunked
      Connection:
      - keep-alive
      Status:
      - '200'
      X-Powered-By:
      - Phusion Passenger (mod_rails/mod_rack) 3.0.11
      Strict-Transport-Security:
      - max-age=31536000
      Pagination:
      - ! '{"total":49,"total_pages":3,"first_page":true,"last_page":false,"previous_page":null,"next_page":2,"offset":0}'
      X-Ua-Compatible:
      - IE=Edge
      Etag:
      - ! '"ceef332f25654aeb94e56546261a5d1b"'
      Cache-Control:
      - must-revalidate, private, max-age=0
      X-Request-Id:
      - bea1ba20c95c69d914815dd52addc8ac
      X-Runtime:
      - '0.766661'
      X-Ratelimit-Limit:
      - '5000'
      X-Ratelimit-Remaining:
      - '4993'
      Date:
      - Tue, 26 Feb 2013 07:06:14 GMT
      X-Rack-Cache:
      - miss
      Server:
      - nginx/1.0.15 + Phusion Passenger 3.0.11 (mod_rails/mod_rack)
    body:
      encoding: US-ASCII
      string: ! '[{"uuid":"62393532-6538-3632-6466-663034646465","instructed_amount":1.0,"amount":0.0,"currency":"EUR","state":"filled","created_at":"2013-01-11T06:56:01-05:00","updated_at":"2013-01-11T06:56:22-05:00","price":null,"type":"sell"},{"uuid":"62373734-3465-3733-3766-346563333364","instructed_amount":2.0,"amount":1.02366092,"currency":"EUR","state":"canceled","created_at":"2013-01-11T06:57:31-05:00","updated_at":"2013-01-11T06:58:00-05:00","price":null,"type":"buy"},{"uuid":"63633463-3230-6662-3264-646637326363","instructed_amount":1.0,"amount":0.0,"currency":"EUR","state":"filled","created_at":"2013-01-11T07:00:48-05:00","updated_at":"2013-01-11T07:00:58-05:00","price":null,"type":"sell"},{"uuid":"64333563-6365-3134-3863-633134333535","instructed_amount":1.0,"amount":0.02366134,"currency":"EUR","state":"canceled","created_at":"2013-01-11T07:01:10-05:00","updated_at":"2013-01-11T07:01:43-05:00","price":null,"type":"buy"},{"uuid":"34396361-3564-3835-3230-656237663133","instructed_amount":10.0,"amount":0.0,"currency":"EUR","state":"filled","created_at":"2013-01-11T12:26:56-05:00","updated_at":"2013-01-11T12:27:18-05:00","price":null,"type":"sell"},{"uuid":"35643438-6163-6163-6337-366362353735","instructed_amount":12.0,"amount":2.16548128,"currency":"EUR","state":"canceled","created_at":"2013-01-11T12:28:47-05:00","updated_at":"2013-01-11T12:29:29-05:00","price":null,"type":"buy"},{"uuid":"61623539-6130-3163-3663-633363366365","instructed_amount":1.0,"amount":1.0,"currency":"EUR","state":"canceled","created_at":"2013-01-14T05:36:14-05:00","updated_at":"2013-01-14T05:36:38-05:00","price":10.78,"type":"sell"},{"uuid":"63376538-3964-3632-6664-646533323235","instructed_amount":5.0,"amount":0.0,"currency":"EUR","state":"filled","created_at":"2013-01-15T04:57:00-05:00","updated_at":"2013-01-15T04:57:02-05:00","price":10.67245782,"type":"sell"},{"uuid":"39656337-3939-3064-3233-333733623831","instructed_amount":150.0,"amount":150.0,"currency":"EUR","state":"canceled","created_at":"2013-01-15T16:15:23-05:00","updated_at":"2013-01-16T06:13:02-05:00","price":11.18,"type":"sell"},{"uuid":"33316265-3661-6133-3431-356335306434","instructed_amount":10.0,"amount":5.32969772,"currency":"EUR","state":"canceled","created_at":"2013-01-15T16:16:03-05:00","updated_at":"2013-01-16T06:13:01-05:00","price":10.92,"type":"buy"},{"uuid":"66376535-6530-3333-3066-306332363439","instructed_amount":1.0,"amount":0.9999998,"currency":"EUR","state":"canceled","created_at":"2013-01-17T04:09:50-05:00","updated_at":"2013-01-17T04:10:58-05:00","price":11.45,"type":"buy"},{"uuid":"64353133-6334-3666-3934-333132376235","instructed_amount":0.0001,"amount":0.0,"currency":"EUR","state":"filled","created_at":"2013-01-17T04:11:57-05:00","updated_at":"2013-01-17T04:11:58-05:00","price":11.111,"type":"sell"},{"uuid":"34616136-6565-6635-3230-663534386561","instructed_amount":100.0,"amount":0.0,"currency":"EUR","state":"filled","created_at":"2013-01-19T17:34:21-05:00","updated_at":"2013-01-20T05:54:12-05:00","price":11.8499,"type":"sell"},{"uuid":"37616166-3763-3465-3936-343466363364","instructed_amount":110.0,"amount":110.0,"currency":"EUR","state":"canceled","created_at":"2013-01-21T10:16:19-05:00","updated_at":"2013-01-24T04:58:15-05:00","price":11.8,"type":"buy"},{"uuid":"12493703-0250-41ca-b2f0-c3369b2c76df","instructed_amount":500.0,"amount":500.0,"currency":"EUR","state":"canceled","created_at":"2013-01-23T01:13:17-05:00","updated_at":"2013-01-23T16:08:17-05:00","price":13.98,"type":"sell"},{"uuid":"3a93273f-a15c-443b-ac62-7af1b4b8b437","instructed_amount":500.0,"amount":500.0,"currency":"EUR","state":"canceled","created_at":"2013-01-23T01:13:43-05:00","updated_at":"2013-01-24T04:58:06-05:00","price":14.5,"type":"sell"},{"uuid":"c68cb8c5-4d37-4844-8f76-899fd2f8250b","instructed_amount":500.0,"amount":500.0,"currency":"EUR","state":"canceled","created_at":"2013-01-23T01:14:15-05:00","updated_at":"2013-01-24T04:58:16-05:00","price":14.98,"type":"sell"},{"uuid":"4e36a7f3-c812-4e4b-a843-d74a552bc750","instructed_amount":150.0,"amount":65.3720315,"currency":"EUR","state":"canceled","created_at":"2013-01-24T04:57:53-05:00","updated_at":"2013-01-24T08:23:19-05:00","price":null,"type":"buy"},{"uuid":"e9e8c30b-16d7-4115-8c02-1de40d040457","instructed_amount":0.436424,"amount":0.0,"currency":"EUR","state":"filled","created_at":"2013-01-24T08:17:31-05:00","updated_at":"2013-01-24T08:29:41-05:00","price":null,"type":"sell"},{"uuid":"fbe0e960-146a-4459-a82b-9c2f74ded496","instructed_amount":1.0,"amount":0.57569889,"currency":"EUR","state":"canceled","created_at":"2013-01-24T08:30:08-05:00","updated_at":"2013-01-24T08:30:23-05:00","price":null,"type":"buy"}]'
    http_version: 
  recorded_at: Tue, 26 Feb 2013 07:06:15 GMT
recorded_with: VCR 2.4.0
